%YAML 1.1
%TAG !u! tag:unity3d.com,2011:
--- !u!1045 &1
EditorBuildSettings:
  m_ObjectHideFlags: 0
  serializedVersion: 2
  m_Scenes:
  - enabled: 1
    path: Assets/Scenes/StartScene.unity
    guid: f837dcf1b7e8efb46bbcd6d273d8ccee
  - enabled: 1
    path: Assets/Scenes/MatchingScene.unity
    guid: 56ed6bacb488d0a408f794d4ff908631
  - enabled: 1
    path: Assets/Scenes/MainScene.unity
    guid: 99c9720ab356a0642a771bea13969a05
  - enabled: 1
    path: Assets/Scenes/GameOverScene.unity
    guid: fa40961fac261784981f3c96b482eee1
  m_configObjects: {}
